{
  "title": "NETDelete-InputSchema",
  "description": "JSON Schema required to delete one or more networks",
  "type": "object",
  "required": [
    "source-system",
    "location",
    "service-id",
    "networks"
  ],
  "properties": {
    "source-system": {
      "title": "Source system",
      "description": "System that is calling Itential. Used by Itential to figure out where to send workflow notifications",
      "type": "string",
      "examples": [
        "ondemand-dev",
        "ondemand-prod"
      ]
    },
    "location": {
      "title": "Location",
      "description": "NFVI pod location in the form <city-code>-pod<id>",
      "type": "string",
      "examples": [
        "lon-pod01",
        "lab-pod01"
      ]
    },
    "service-id": {
      "title": "Service ID",
      "description": "Siebel service ID",
      "type": "string",
      "examples": [
        "80045800"
      ]
    },
    "networks": {
      "title": "Networks",
      "description": "List of networks",
      "type": "array",
      "items": {
        "title": "Network",
        "type": "object",
        "required": [
          "network-name",
          "vlan-id"
        ],
        "properties": {
          "vlan-id": {
            "title": "Vlan ID",
            "description": "Unique identifier for a customer LAN or WAN connection on the TOR LAG. Range from 101 to 3900",
            "type": "integer",
            "examples": [
              2701,
              2702
            ]
          },
          "network-name": {
            "title": "Network name",
            "description": "Name of the network, a circuit ID",
            "type": "string",
            "examples": [
              "LON/LON/LE-532781",
              "LON/LON/LE-532782"
            ]
          }
        }
      }
    }
  },
  "examples": [{
    "formData": {
      "source-system": "ondemand-dev",
      "location": "blr_dev",
      "service-id": "80045800",
      "networks": [{
        "network-name": "LON/LON/LE-532781",
        "vlan-id": 2701
      },
        {
          "network-name": "LON/LON/LE-532782",
          "vlan-id": 2702
        }
      ]
    }
  }]
}
