{
  "title": "VNFCreate-InputSchema",
  "description": "JSON Schema required to create one VNF with the required ports",
  "type": "object",
  "required": [
    "source-system",
    "location",
    "vnf-type",
    "vnf-size",
    "vnf-name",
    "service-id",
    "colt-mgmt"
  ],
  "properties": {
    "source-system": {
      "title": "Source system",
      "description": "System that is calling Itential. Used by Itential to figure out where to send workflow notifications",
      "type": "string",
      "examples": [
        "ondemand-dev",
        "ondemand-prod"
      ]
    },
    "location": {
      "title": "Location",
      "description": "NFVI pod location in the form <city-code>-pod<id>",
      "type": "string",
      "examples": [
        "lon-pod01",
        "lab-pod01"
      ]
    },
    "vnf-type": {
      "title": "VNF type",
      "description": "Service desired to deploy",
      "type": "string",
      "examples": [
        "MCR"
      ]
    },
    "vnf-size": {
      "title": "VNF size",
      "description": "Size of the service (bandwidth based)",
      "type": "string",
      "examples": [
        "100M",
        "1G"
      ]
    },
    "vnf-name": {
      "title": "VNF name",
      "description": "Concatenation of Siebel service id and Siebel asset ID",
      "type": "string",
      "examples": [
        "80045469_VNF_Id_1"
      ]
    },
    "service-id": {
      "title": "Service ID",
      "description": "Siebel service ID",
      "type": "string",
      "examples": [
        "80045800"
      ]
    },
    "colt-mgmt": {
      "title": "The colt-mgmt Schema",
      "description": "Flag to indicate if the VNF is managed by Colt",
      "type": "boolean",
      "examples": [
        true,
        false
      ]
    },
    "mgmt-ip": {
      "title": "Management IP",
      "description": "IP address used for the management of the VNF",
      "type": "string",
      "examples": [
        "10.91.151.205"
      ]
    },
    "mgmt-network": {
      "title": "Management network",
      "description": "Name of the management network",
      "type": "string",
      "examples": [
        "VPP-SHARED-MGMT-NETWORK-VLAN26"
      ]
    },
    "networks": {
      "title": "Networks",
      "description": "List of networks in which ports will be created",
      "type": "array",
      "items": {
        "title": "Network",
        "type": "string",
        "examples": [
          "LON/LON/LE-532781",
          "LON/LON/LE-532782"
        ]
      }
    }
  },
  "examples": [{
    "formData": {
      "source-system": "ondemand-dev",
      "location": "blr_dev",
      "vnf-type": "MCR",
      "vnf-size": "100M",
      "vnf-name": "80045469_VNF_Id_1",
      "service-id": "80045800",
      "colt-mgmt": true,
      "mgmt-ip": "10.91.151.205",
      "mgmt-network": "VPP-SHARED-MGMT-NETWORK-VLAN26",
      "networks": [
        "LON/LON/LE-532781",
        "LON/LON/LE-532782"
      ]
    }
  }]
}
